%YAML 1.1
%TAG !u! tag:unity3d.com,2011:
--- !u!21 &2100000
Material:
  serializedVersion: 6
  m_ObjectHideFlags: 0
  m_PrefabParentObject: {fileID: 0}
  m_PrefabInternal: {fileID: 0}
  m_Name: volund_swords_mat
  m_Shader: {fileID: 46, guid: 0000000000000000f000000000000000, type: 0}
  m_ShaderKeywords: _LIGHTMAPPING_DYNAMIC_LIGHTMAPS _LIGHTMAPPING_REALTIME _NORMALMAP
    _SPECGLOSSMAP _UVSEC_UV1
  m_LightmapFlags: 5
  m_EnableInstancingVariants: 0
  m_DoubleSidedGI: 0
  m_CustomRenderQueue: -1
  stringTagMap: {}
  disabledShaderPasses: []
  m_SavedProperties:
    serializedVersion: 3
    m_TexEnvs:
    - _BumpMap:
        m_Texture: {fileID: 2800000, guid: 561b3d4e9a642b64a8708ca2305ab7ff, type: 3}
        m_Scale: {x: 1, y: 1}
        m_Offset: {x: 0, y: 0}
    - _DetailAlbedoMap:
        m_Texture: {fileID: 0}
        m_Scale: {x: 1, y: 1}
        m_Offset: {x: 0, y: 0}
    - _DetailMask:
        m_Texture: {fileID: 0}
        m_Scale: {x: 1, y: 1}
        m_Offset: {x: 0, y: 0}
    - _DetailNormalMap:
        m_Texture: {fileID: 0}
        m_Scale: {x: 1, y: 1}
        m_Offset: {x: 0, y: 0}
    - _EmissionMap:
        m_Texture: {fileID: 0}
        m_Scale: {x: 1, y: 1}
        m_Offset: {x: 0, y: 0}
    - _EmissionTempRamp:
        m_Texture: {fileID: 0}
        m_Scale: {x: 1, y: 1}
        m_Offset: {x: 0, y: 0}
    - _EmissionTemperatureRamp:
        m_Texture: {fileID: 0}
        m_Scale: {x: 1, y: 1}
        m_Offset: {x: 0, y: 0}
    - _MainTex:
        m_Texture: {fileID: 2800000, guid: 69fe44263cd9e3a4987dca93feca1ad6, type: 3}
        m_Scale: {x: 1, y: 1}
        m_Offset: {x: 0, y: 0}
    - _MetallicGlossMap:
        m_Texture: {fileID: 0}
        m_Scale: {x: 1, y: 1}
        m_Offset: {x: 0, y: 0}
    - _Occlusion:
        m_Texture: {fileID: 2800000, guid: 9576fcb0c0ec32f4c8b6226bd513fc79, type: 3}
        m_Scale: {x: 1, y: 1}
        m_Offset: {x: 0, y: 0}
    - _OcclusionMap:
        m_Texture: {fileID: 0}
        m_Scale: {x: 1, y: 1}
        m_Offset: {x: 0, y: 0}
    - _ParallaxMap:
        m_Texture: {fileID: 0}
        m_Scale: {x: 1, y: 1}
        m_Offset: {x: 0, y: 0}
    - _SpecGlossMap:
        m_Texture: {fileID: 2800000, guid: f0ca3471cdacf0d4998002ac2f673463, type: 3}
        m_Scale: {x: 1, y: 1}
        m_Offset: {x: 0, y: 0}
    m_Floats:
    - _AlphaTestRef: 0.5
    - _BumpScale: 1
    - _CullMode: 2
    - _Cutoff: 0.5
    - _DetailNormalMapScale: 1
    - _DstBlend: 0
    - _EmissionScaleUI: 1
    - _EmissionTemperature: 0
    - _GlossMapScale: 1
    - _Glossiness: 0.601
    - _GlossyReflections: 1
    - _Lightmapping: 1
    - _Metallic: 0
    - _Mode: 0
    - _OcclusionStrength: 0.325
    - _Parallax: 0.02
    - _PlaneReflectionBumpClamp: 0.05
    - _PlaneReflectionBumpScale: 0.4
    - _ProbesBoost: 1
    - _SmoothnessInAlbedo: 0
    - _SmoothnessTextureChannel: 0
    - _SmoothnessTweak1: 1
    - _SmoothnessTweak2: 0
    - _SpecularHighlights: 1
    - _SrcBlend: 1
    - _UVSec: 0
    - _ZWrite: 1
    m_Colors:
    - _Color: {r: 0.25, g: 0.25, b: 0.25, a: 1}
    - _EmissionColor: {r: 0, g: 0, b: 0, a: 1}
    - _EmissionColorUI: {r: 0, g: 0, b: 0, a: 1}
    - _EmissionColorWithMapUI: {r: 1, g: 1, b: 1, a: 1}
    - _SmoothnessTweaks: {r: 1, g: 0, b: 0, a: 0}
    - _SpecColor: {r: 0.2, g: 0.2, b: 0.2, a: 1}
    - _SpecularColor: {r: 0.5808823, g: 0.5808823, b: 0.5808823, a: 1}
    - _SpecularMapColorTweak: {r: 0.7647059, g: 0.7647059, b: 0.7647059, a: 1}
